measure_id,measure_name,location_id,location_name,sex_id,sex_name,age_id,age_name,cause_id,cause_name,metric_id,metric_name,year,val,upper,lower
1,Deaths,102,United States of America,3,Both,9,20 to 24,409,Non-communicable diseases,1,Number,2009,5952.632051498826,6095.217359727074,5829.828402676843
1,Deaths,102,United States of America,3,Both,10,25 to 29,409,Non-communicable diseases,1,Number,2009,8722.129073657932,8881.901880160454,8576.005818712834
1,Deaths,102,United States of America,3,Both,11,30 to 34,409,Non-communicable diseases,1,Number,2009,11529.28155280899,11672.057165211872,11399.820220541467
1,Deaths,102,United States of America,3,Both,12,35 to 39,409,Non-communicable diseases,1,Number,2009,18315.853216987554,18457.455244947843,18175.586222253824
1,Deaths,102,United States of America,3,Both,13,40 to 44,409,Non-communicable diseases,1,Number,2009,31926.87417629729,32093.57253204332,31753.486980451544
1,Deaths,102,United States of America,3,Both,14,45 to 49,409,Non-communicable diseases,1,Number,2009,60325.95812977448,60561.43758672915,60077.584367257965
1,Deaths,102,United States of America,3,Both,15,50 to 54,409,Non-communicable diseases,1,Number,2009,94222.22095878709,94533.84815255321,93902.23785961425
1,Deaths,102,United States of America,3,Both,16,55 to 59,409,Non-communicable diseases,1,Number,2009,123061.93352386364,123452.73553268173,122639.82342979287
1,Deaths,102,United States of America,3,Both,17,60 to 64,409,Non-communicable diseases,1,Number,2009,152821.27276566622,153220.63040053178,152369.2810519207
1,Deaths,102,United States of America,3,Both,9,20 to 24,409,Non-communicable diseases,1,Number,2017,8040.41446711824,8562.385861478173,7752.513838177102
1,Deaths,102,United States of America,3,Both,10,25 to 29,409,Non-communicable diseases,1,Number,2017,14303.197670296093,15150.597509777826,13887.618155077967
1,Deaths,102,United States of America,3,Both,11,30 to 34,409,Non-communicable diseases,1,Number,2017,18805.53265175502,19516.34423365089,18450.81281651605
1,Deaths,102,United States of America,3,Both,12,35 to 39,409,Non-communicable diseases,1,Number,2017,23394.753187721588,23857.13887898641,23112.92512766192
1,Deaths,102,United States of America,3,Both,13,40 to 44,409,Non-communicable diseases,1,Number,2017,31548.46994046958,31822.115508816525,31281.218106086086
1,Deaths,102,United States of America,3,Both,14,45 to 49,409,Non-communicable diseases,1,Number,2017,52209.32211915366,52479.02342057178,51969.33612193221
1,Deaths,102,United States of America,3,Both,15,50 to 54,409,Non-communicable diseases,1,Number,2017,90117.05759055585,90500.89192656783,89766.730010535
1,Deaths,102,United States of America,3,Both,16,55 to 59,409,Non-communicable diseases,1,Number,2017,143726.63309166796,144266.21928136912,143211.05532325935
1,Deaths,102,United States of America,3,Both,17,60 to 64,409,Non-communicable diseases,1,Number,2017,193981.57759305387,194610.17805553263,193429.08369129675
